<?xml version="1.0" encoding="UTF-8" standalone="no"?>
<window xmlns="http://schemas.haulmont.com/cuba/screen/window.xsd"
        xmlns:c="http://schemas.haulmont.com/cuba/screen/jpql_condition.xsd"
        caption="msg://treasuryFrontOfficeBrowse.caption"
        focusComponent="treasuryFrontOfficeTable"
        messagesPack="com.bdc.treasury.web.screens.treasuryfrontoffice">
    <data readOnly="true">
        <collection id="treasuryFrontOfficesDc"
                    class="com.bdc.treasury.entity.TreasuryFrontOffice" view="treasuryFrontOffice-view">
            <loader id="treasuryFrontOfficesDl">
                <query>
                    <![CDATA[select e from treasury_TreasuryFrontOffice e]]>
                </query>
            </loader>
        </collection>
        <collection id="crossAccountsDc" class="com.bdc.treasury.entity.CrossAccount">
            <view extends="crossAccount-view"/>
            <loader id="crossAccountsDl">
                <query>
                    <![CDATA[select e from treasury_CrossAccount e]]>
                </query>
            </loader>
        </collection>
        <collection id="transactionsDc" class="com.bdc.treasury.entity.Transaction">
            <view extends="transaction-view"/>
            <loader id="transactionsDl">
                <query>
                    <![CDATA[select e from treasury_Transaction e]]>
                </query>
            </loader>
        </collection>
        <collection id="transactionsDc1" class="com.bdc.treasury.entity.Transaction">
            <view extends="transaction-view"/>
            <loader id="transactionsDl1">
                <query>
                    <![CDATA[select e from treasury_Transaction e]]>
                </query>
            </loader>
        </collection>
        <collection id="currenciesDc" class="com.bdc.treasury.entity.Currency">
            <view extends="currency-view">
                <property name="code"/>
            </view>
            <loader id="currenciesDl">
                <query>
                    <![CDATA[select e from treasury_Currency e]]>
                </query>
            </loader>
        </collection>
    </data>
    <dialogMode height="600"
                width="800"/>
    <facets>
        <dataLoadCoordinator auto="true">
        </dataLoadCoordinator>
    </facets>
    <layout expand="treasuryFrontOfficeTable"
            spacing="true">
        <label id="TimeRemField"/>
        <groupBox  caption="Filter" icon="font-icon:FILTER" width="100%">
            <scrollBox width="100%" orientation="horizontal">
                <lookupField optionsContainer="currenciesDc" id="currency" caption="Currency" />
                <lookupField id="account" optionsContainer="crossAccountsDc" caption="crossAccount"/>
                <dateField id="startDate" caption="startDate" dateFormat="dd/MM/yyyy" datatype="localDate"/>
                <dateField id="endDate" caption="endDate" dateFormat="dd/MM/yyyy" datatype="localDate"/>

            </scrollBox>
        </groupBox>
        <groupTable dataContainer="treasuryFrontOfficesDc" sortable="true"
                    id="treasuryFrontOfficeTable"
                    width="100%" reorderingAllowed="true">
            <actions>
                <action id="search" caption="search"/>
                <action id="excel" type="excel"/>
            </actions>
            <columns>
                <column id="valueDate" caption="Value Date" sort="ASCENDING"/>
                <column id="dayOfWeek" caption="Day"/>
                <column id="depit" caption="Debit"/>
                <column id="credit" caption="Credit"/>
                <column id="totalExclude" caption="Previous Day Closing"/>
                <column id="closing" caption="Net Balance"/>
            </columns>
            <rows/>
            <buttonsPanel alwaysVisible="true" width="100%">
                <button caption="SEARCH" id="search" action="treasuryFrontOfficeTable.search" width="20%" icon="icons/search.png"/>
                <button action="treasuryFrontOfficeTable.excel"/>
            </buttonsPanel>
        </groupTable>
        <hbox id="lookupActions" spacing="true" visible="false">
            <button action="lookupSelectAction"/>
            <button action="lookupCancelAction"/>
        </hbox>
    </layout>
</window>
