[
  {
    "_entityName": "sec$Group",
    "id": "375185c3-90e3-7814-6a8d-3124996c6ff7",
    "parent": {
      "_entityName": "sec$Group",
      "id": "0fa2b1a5-1d68-4d69-9fbd-dff348347f93",
      "version": 1,
      "name": "BDC"
    },
    "version": 3,
    "constraints": [],
    "name": "FCY Checks Collection",
    "sessionAttributes": []
  },
  {
    "_entityName": "sec$Group",
    "id": "b3099030-cb9f-c1ac-696f-03fb2215890d",
    "parent": {
      "_entityName": "sec$Group",
      "id": "0fa2b1a5-1d68-4d69-9fbd-dff348347f93"
    },
    "version": 1,
    "constraints": [],
    "name": "Corporate\u0026GTP",
    "sessionAttributes": []
  }
]